{
  "0": [
    "        ",
    "        ",
    "66      ",
    "44666   ",
    "00000   ",
    "03330   ",
    "033306 6",
    "00000660"
  ],
  "1": [
    "        ",
    "        ",
    "        ",
    "        ",
    " 666666 ",
    "60000066",
    "01003300",
    "00033332"
  ],
  "2": [
    "  5555  ",
    " 4555555",
    " 4555555",
    "44555555",
    "45555555",
    "44555555",
    "44455525",
    " 411111 "
  ],
  "3": [
    "  5555  ",
    " 4455555",
    " 4445555",
    "75545555",
    "75544555",
    "54554455",
    "55455444",
    " 511111 "
  ],
  "4": [
    "  5544  ",
    " 5555455",
    "55555455",
    "55555445",
    "55555545",
    "55555545",
    "5555552 ",
    " 225555 "
  ],
  "16": [
    " 0000000",
    "44600000",
    "00000000",
    "03330000",
    "03330666",
    "00006   ",
    "6666    ",
    "        "
  ],
  "17": [
    "00000022",
    "00111122",
    "11114422",
    "66666666",
    "        ",
    "        ",
    "        ",
    "        "
  ]
}